{
  "project_info": {
    "project_number": "879326460145",
    "firebase_url": "https://my-library-c2806.firebaseio.com",
    "project_id": "my-library-c2806",
    "storage_bucket": "my-library-c2806.appspot.com"
  },
  "client": [
    {
      "client_info": {
        "mobilesdk_app_id": "1:879326460145:android:c8c4e8dad0676a6c",
        "android_client_info": {
          "package_name": "com.traktiran.traktiran"
        }
      },
      "oauth_client": [
        {
          "client_id": "879326460145-lhtocof3sdbbl3in5fg6sdduhitisa48.apps.googleusercontent.com",
          "client_type": 3
        }
      ],
      "api_key": [
        {
          "current_key": "AIzaSyDPvZ0NW6qhtEZ72HuGtS3eVBaMGTg13Kc"
        }
      ],
      "services": {
        "analytics_service": {
          "status": 1
        },
        "appinvite_service": {
          "status": 1,
          "other_platform_oauth_client": []
        },
        "ads_service": {
          "status": 2
        }
      }
    }
  ],
  "configuration_version": "1"
}